^C:\USERS\VARVA\SOURCE\REPOS\SUPERPROJECT\SUPERPROJECT\MAIN.CPP|C:\USERS\VARVA\SOURCE\REPOS\SUPERPROJECT\SUPERPROJECT\MATH.CPP
C:\USERS\VARVA\SOURCE\REPOS\SUPERPROJECT\SUPERPROJECT\DEBUG\VC142.PDB
C:\USERS\VARVA\SOURCE\REPOS\SUPERPROJECT\SUPERPROJECT\DEBUG\VC142.IDB
C:\USERS\VARVA\SOURCE\REPOS\SUPERPROJECT\SUPERPROJECT\DEBUG\MATH.OBJ
C:\USERS\VARVA\SOURCE\REPOS\SUPERPROJECT\SUPERPROJECT\DEBUG\MAIN.OBJ
^C:\USERS\VARVA\SOURCE\REPOS\SUPERPROJECT\SUPERPROJECT\HELPERS.CPP|C:\USERS\VARVA\SOURCE\REPOS\SUPERPROJECT\SUPERPROJECT\MAIN.CPP
C:\USERS\VARVA\SOURCE\REPOS\SUPERPROJECT\SUPERPROJECT\DEBUG\VC142.PDB
C:\USERS\VARVA\SOURCE\REPOS\SUPERPROJECT\SUPERPROJECT\DEBUG\VC142.IDB
C:\USERS\VARVA\SOURCE\REPOS\SUPERPROJECT\SUPERPROJECT\DEBUG\HELPERS.OBJ
^C:\USERS\VARVA\SOURCE\REPOS\SUPERPROJECT\SUPERPROJECT\HELPERS.CPP
C:\USERS\VARVA\SOURCE\REPOS\SUPERPROJECT\SUPERPROJECT\DEBUG\HELPERS.OBJ
^C:\USERS\VARVA\SOURCE\REPOS\SUPERPROJECT\SUPERPROJECT\MAIN.CPP
C:\USERS\VARVA\SOURCE\REPOS\SUPERPROJECT\SUPERPROJECT\DEBUG\VC142.PDB
C:\USERS\VARVA\SOURCE\REPOS\SUPERPROJECT\SUPERPROJECT\DEBUG\VC142.IDB
C:\USERS\VARVA\SOURCE\REPOS\SUPERPROJECT\SUPERPROJECT\DEBUG\MAIN.OBJ
